…
```r
fit_wflows %>% collect_metrics()
```

```
## # A tibble: 48 x 9
##    wflow_id     .config    preproc model  .metric .estimator  mean     n std_err
##    <chr>        <chr>      <chr>   <chr>  <chr>   <chr>      <dbl> <int>   <dbl>
##  1 with2019ae_… Preproces… recipe  logis… accura… binary     0.769    10  0.0160
##  2 with2019ae_… Preproces… recipe  logis… roc_auc binary     0.718    10  0.0302
##  3 with2019ae_… Preproces… recipe  logis… sens    binary     0.905    10  0.0157
##  4 with2019ae_… Preproces… recipe  logis… accura… binary     0.769    10  0.0132
##  5 with2019ae_… Preproces… recipe  logis… roc_auc binary     0.731    10  0.0318
##  6 with2019ae_… Preproces… recipe  logis… sens    binary     0.916    10  0.0146
##  7 with2019ae_… Preproces… recipe  rand_… accura… binary     0.845    10  0.0174
##  8 with2019ae_… Preproces… recipe  rand_… roc_auc binary     0.877    10  0.0188
##  9 with2019ae_… Preproces… recipe  rand_… sens    binary     0.953    10  0.0110
## 10 with2019ae_… Preproces… recipe  rand_… accura… binary     0.858    10  0.0163
## # … with 38 more rows
```
…
