…
Local error for each client

``` r
#with IHME death
calib_tbl %>% 
    modeltime_accuracy(acc_by_id = TRUE)
```

    ## # A tibble: 2,460 × 10
    ##    .model_id .model_desc .type client    mae  mape   mase smape   rmse     rsq
    ##        <int> <chr>       <chr> <fct>   <dbl> <dbl>  <dbl> <dbl>  <dbl>   <dbl>
    ##  1         1 RANGER      Test  1        4.92 Inf    15.4  156.    5.30  0.411 
    ##  2         1 RANGER      Test  10      57.3  333.   17.4  108.   58.6   0.126 
    ##  3         1 RANGER      Test  100      4.75  38.9   2.51  51.0   6.39  0.384 
    ##  4         1 RANGER      Test  101      4.30 191.    3.32  81.7   4.71  0.333 
    ##  5         1 RANGER      Test  102      2.46 Inf   Inf    200     2.50 NA     
    ##  6         1 RANGER      Test  103      1.30 155.    1.51  64.8   1.75  0.610 
    ##  7         1 RANGER      Test  104    262.   Inf   125.   173.  310.    0.385 
    ##  8         1 RANGER      Test  105     30.6  313.   16.4  109.   34.8   0.0498
    ##  9         1 RANGER      Test  106     19.4   93.9   7.67  56.7  24.2   0.0835
    ## 10         1 RANGER      Test  107      4.05  49.1   2.12  68.4   6.52  0.0691
    ## # … with 2,450 more rows

``` r
#with zip death
calib_tbl1 %>% 
    modeltime_accuracy(acc_by_id = TRUE)
```

    ## # A tibble: 2,460 × 10
    ##    .model_id .model_desc .type client    mae  mape   mase smape   rmse      rsq
    ##        <int> <chr>       <chr> <fct>   <dbl> <dbl>  <dbl> <dbl>  <dbl>    <dbl>
    ##  1         1 RANGER      Test  1       11.5  Inf    36.1  175.   13.8   0.412  
    ##  2         1 RANGER      Test  10      59.6  339.   18.1  110.   61.4   0.165  
    ##  3         1 RANGER      Test  100      6.74  68.8   3.56  61.3   8.04  0.0142 
    ##  4         1 RANGER      Test  101      5.63 219.    4.35  84.9   7.00  0.544  
    ##  5         1 RANGER      Test  102      2.12 Inf   Inf    200     2.16 NA      
    ##  6         1 RANGER      Test  103      1.67 198.    1.94  70.5   2.30  0.602  
    ##  7         1 RANGER      Test  104    240.   Inf   115.   168.  294.    0.333  
    ##  8         1 RANGER      Test  105     32.3  325.   17.3  113.   36.9   0.0476 
    ##  9         1 RANGER      Test  106     21.8  107.    8.62  64.3  26.8   0.0622 
    ## 10         1 RANGER      Test  107      3.98  49.0   2.09  68.3   6.44  0.00413
    ## # … with 2,450 more rows

``` r
#without death data
calib_tbl2 %>% 
    modeltime_accuracy(acc_by_id = TRUE)
```

    ## # A tibble: 2,460 × 10
    ##    .model_id .model_desc .type client    mae  mape   mase smape   rmse      rsq
    ##        <int> <chr>       <chr> <fct>   <dbl> <dbl>  <dbl> <dbl>  <dbl>    <dbl>
    ##  1         1 RANGER      Test  1        2.56 Inf     8.03 129.    2.79  0.314  
    ##  2         1 RANGER      Test  10      63.9  353.   19.4  114.   64.8   0.442  
    ##  3         1 RANGER      Test  100      5.20  43.4   2.75  58.8   6.74  0.476  
    ##  4         1 RANGER      Test  101      4.01 148.    3.09  78.3   4.65  0.123  
    ##  5         1 RANGER      Test  102      3.04 Inf   Inf    200     3.10 NA      
    ##  6         1 RANGER      Test  103      1.66 175.    1.92  77.5   2.28  0.00315
    ##  7         1 RANGER      Test  104    249.   Inf   119.   173.  294.    0.398  
    ##  8         1 RANGER      Test  105     24.2  253.   13.0  102.   26.9   0.124  
    ##  9         1 RANGER      Test  106     13.3   65.8   5.27  51.1  15.1   0.148  
    ## 10         1 RANGER      Test  107      4.31  53.5   2.26  79.6   6.56  0.721  
    ## # … with 2,450 more rows
…
